<?xml version="1.0" encoding="utf-8"?>
<!-- Generator: Adobe Illustrator 16.0.0, SVG Export Plug-In . SVG Version: 6.00 Build 0)  -->
<!DOCTYPE svg PUBLIC "-//W3C//DTD SVG 1.1//EN" "http://www.w3.org/Graphics/SVG/1.1/DTD/svg11.dtd">
<svg version="1.1" id="Capa_1" xmlns="http://www.w3.org/2000/svg" xmlns:xlink="http://www.w3.org/1999/xlink" x="0px" y="0px"
	 width="56.75px" height="64px" viewBox="0 0 56.75 64" enable-background="new 0 0 56.75 64" xml:space="preserve">
<g>
	<g>
		<g>
			<path fill="#F2BA00" d="M46.289,4.646c-3.698-4.104-10.332-4.752-17.189,6.236c-0.237,0.391-0.483,0.785-0.721,1.203
				c-0.245-0.418-0.483-0.813-0.729-1.203C20.793-0.105,14.152,0.543,10.462,4.646c-1.92,2.35-2.684,4.434-2.568,6.236
				c0.245,4.088,5.005,6.777,11.198,8.076c2.892,0.605,6.085,0.908,9.286,0.908c3.172,0,6.359-0.303,9.229-0.908
				c6.208-1.291,10.987-3.988,11.247-8.076C48.97,9.08,48.207,6.996,46.289,4.646z M12.552,10.883
				c-0.548-1.104-0.383-2.35,0.836-3.723c2.973-3.33,6.713-0.287,9.627,3.723c1.225,1.68,2.301,3.533,3.113,5.148
				C20.765,15.777,14.023,13.875,12.552,10.883z M44.305,10.883c-1.391,3.043-8.271,4.881-13.685,5.148
				c0.815-1.615,1.896-3.469,3.122-5.148c2.914-3.994,6.655-7.037,9.618-3.723C44.593,8.547,44.802,9.795,44.305,10.883z"/>
		</g>
	</g>
	<path fill="#D89F00" d="M46.289,4.646c-3.698-4.104-10.332-4.752-17.189,6.236c-0.237,0.391-0.483,0.785-0.721,1.203v7.781
		c3.172,0,6.359-0.303,9.229-0.908c6.208-1.291,10.987-3.988,11.247-8.076C48.97,9.08,48.207,6.996,46.289,4.646z M44.305,10.883
		c-1.391,3.043-8.271,4.881-13.685,5.148c0.815-1.615,1.896-3.469,3.122-5.148c2.914-3.994,6.655-7.037,9.618-3.723
		C44.593,8.547,44.802,9.795,44.305,10.883z"/>
	<rect x="1.818" y="18.914" fill="#DF5985" width="53.114" height="12.07"/>
	<polygon fill="#CE517E" points="54.932,18.914 1.818,30.984 54.932,30.984 	"/>
	<rect x="1.818" y="18.914" fill="#FF7DB8" width="53.114" height="1.93"/>
	<rect x="4.232" y="30.984" fill="#BD3C67" width="48.287" height="31.387"/>
	<polygon fill="#AF3564" points="52.519,30.984 4.232,62.371 52.519,62.371 	"/>
	<path fill="#DF5985" d="M52.519,33.125c-0.651-0.074-1.368,0.033-2.072,0.404c-2.414,1.273-3.519,5.426,2.072,10.014V33.125z"/>
	<path id="favorite-icon_19_" fill="#DF5985" d="M24.009,33.633c-2.037-1.074-4.185,0.027-4.485,1.471
		c-0.302-1.443-2.451-2.545-4.487-1.471c-2.716,1.434-3.78,6.508,4.487,11.75C27.792,40.141,26.724,35.066,24.009,33.633z"/>
	<path id="favorite-icon_17_" fill="#DF5985" d="M41.714,33.633c-2.036-1.074-4.186,0.027-4.486,1.471
		c-0.301-1.443-2.45-2.545-4.486-1.471c-2.716,1.434-3.781,6.508,4.486,11.75C45.496,40.141,44.43,35.066,41.714,33.633z"/>
	<path id="favorite-icon_15_" fill="#DF5985" d="M15.158,49.201c-2.037-1.074-4.186,0.027-4.487,1.471
		c-0.302-1.443-2.45-2.543-4.485-1.471c-2.715,1.434-3.782,6.508,4.485,11.75C18.937,55.709,17.873,50.635,15.158,49.201z"/>
	<path id="favorite-icon_13_" fill="#DF5985" d="M32.862,49.201c-2.036-1.074-4.186,0.027-4.486,1.471
		c-0.301-1.443-2.45-2.543-4.486-1.471c-2.714,1.434-3.781,6.508,4.486,11.75C36.643,55.709,35.578,50.635,32.862,49.201z"/>
	<path id="favorite-icon_1_" fill="#DF5985" d="M50.566,49.201c-2.035-1.074-4.185,0.027-4.485,1.471
		c-0.302-1.443-2.45-2.543-4.486-1.471c-2.715,1.434-3.781,6.508,4.486,11.75C54.348,55.709,53.281,50.635,50.566,49.201z"/>
	<path fill="#DF5985" d="M6.304,33.633c-0.703-0.371-1.422-0.479-2.072-0.404v10.418C9.823,39.059,8.717,34.906,6.304,33.633z"/>
	<rect x="23.547" y="18.963" fill="#F2BA00" width="9.655" height="12.068"/>
	<rect x="23.547" y="30.984" fill="#F2BA00" width="9.655" height="31.387"/>
	<rect x="4.232" y="30.984" fill="#99345B" width="48.287" height="1.836"/>
	<rect x="4.232" y="61.164" fill="#99345B" width="48.287" height="1.836"/>
	<rect x="23.547" y="30.984" fill="#BF8D00" width="9.655" height="1.836"/>
	<rect x="23.547" y="18.963" fill="#FFC729" width="9.655" height="1.834"/>
	<rect x="23.547" y="61.164" fill="#BF8D00" width="9.655" height="1.836"/>
</g>
</svg>
